1 10 20
100 200 125
201 210 89
900 1000 174
58493 43289 340
4832 4830 122
54 433 144
432 4839 238
54837 58984 322
43287 43948 270
5849 48933 324
29 2483 209
584 839 171
58943 43 340
54843 59 340
58449 1000 340
7690 283 262
584 400 142
48393 50 324
549 20 144
5 30 112
40 20 112
4948 202 238
99999 1 351
43892 29 324
483 5 144
48 2 112
39 30 107
40 20 112
4838 503 238
5939 393 238
393 505 142
392 595 142
3828 405 238
383 606 142
583 395 142
2928 4040 238
22828 993 279
48484 440 324
2288 505 183
2929 277 217
49494 3030 324
29393 6060 308
83747 3005 351
3837 6050 236
28374 6594 308
28473 69484 340
8540 238 262
12345 57575 340
47475 93 324
2934 3483 199
4848 53848 340
455 993 179
854 2 171
39 2938 217
493 53 144
294 50 128
3847 59 238
283 585 144
3838 8383 262
3945 96 238
330 500 142
1650 4555 238
30000 50000 324
432 564 142
91 101 119
72 88 116
453 60000 340
3423 10000 262
50 50 25
654 1930 182
34 90 116
4678 98765 351
5762 23805 282
27593 28609 259
90 45 116
689 1892 182
285 19083 279
78 80 36
2 9 20
549 14589 276
948351 948681 326
45 9013 262
77 624 144
3 9 20
20 21 8
5349 3954 215
81 44 116
53 872 179
99 104 88
418 9382 262
213 8094 262
652 82 145
675 1243 182
433 450 116
660 660 114
120 119 34
9 14 20
999991 999999 259
547 849 171
89 81 111
54 283 128
12 1212 182
1 11111 268
3 5 8
585 65464 340
138 5430 238
8654 23980 282
342342 342455 260
38 342 144
9403 58493 340
284 543 144
8654 23482 279
300 211 128
7 5 17
839 83900 351
65 651 145
9393 93939 351
2 10 20
1289 9821 262
9 99 119
519 5191 238
4329 5483 215
12 19 21
43 44 30
54365 94021 351
823 593 171
4545 5454 210
2394 12942 268
65 299 128
191 1911 182
21 12912 268
4 21 21
549 550 93
2020 2021 64
1999 1990 51
781 1001 179
159 534 144
30 92 116
5 70 113
44 88 116
88 888 179
32 3232 217
6859 10 262
10 10 7
111 1111 179
43 9191 262
199800 199900 205
999 998 50
1002 2001 182
57 2948 217
393 39393 324
2 18 21
4 55 113
333 999 179
1000 2021 182
45000 90000 351
23 9 21
50 50 25
20 20 8
678787 679000 230
